{
  "activeViewId" : "68501829-ea76-4beb-a0f7-ae73adf4b963",
  "appPageId" : "b28b82d8-ebbd-4ad1-9e0a-67ef2907c943",
  "configurationTags" : [ ],
  "id" : "1f20afbc-6dac-45ae-9e35-5a5f0ba71a97",
  "label" : "Error",
  "pageAccess" : "UseParent",
  "routeType" : "error",
  "type" : "route",
  "urlPrefix" : "error"
}