{
  "activeViewId" : "2a410dac-3f3a-436a-b26d-7c8abab32b87",
  "appPageId" : "3b7019f7-1329-48b2-a774-5a2218405773",
  "configurationTags" : [ ],
  "id" : "ffb9f314-cee3-4f21-8a77-e8f4ba88731d",
  "label" : "Forgot Password",
  "routeType" : "forgot-password",
  "type" : "route",
  "urlPrefix" : "ForgotPassword"
}