{
  "activeViewId" : "63f020e7-36cf-45ce-b370-7faa21508b59",
  "appPageId" : "b28b82d8-ebbd-4ad1-9e0a-67ef2907c943",
  "configurationTags" : [ ],
  "id" : "4d7cb3c1-f98f-438e-a201-bfa1417641e6",
  "label" : "Group Related List",
  "routeType" : "relatedlist-0F9",
  "type" : "route",
  "urlPrefix" : "group"
}