{
  "activeViewId" : "e2f5ba42-67ff-4c3f-8ebf-847b84f49ed5",
  "appPageId" : "b28b82d8-ebbd-4ad1-9e0a-67ef2907c943",
  "configurationTags" : [ ],
  "id" : "cdfe390c-b469-45b5-be18-88efd4d6992a",
  "label" : "Question Detail",
  "routeType" : "feeditem",
  "type" : "route",
  "urlPrefix" : "question"
}