{
  "activeBrandingSetId" : "fd5f8b5e-51f2-4ea3-8cc3-b3bb1c03ae84",
  "customCSS" : ".forceCommunityActionButtonMobile{\n\tdisplay:none;\n}\n\n.footer {\n    background-color: #666;\n}\n\nbutton{\n    border-radius: 1.375rem !important;\n}\n\n.inputHeader{\n    font-weight:bold;\n}\n\n.slds-rich-text-editor__output{\n    font-weight:bold !important;\n}\n\n.comm-navigation__top-level-item-link--active{\n\tbackground : lightgrey !important;    \n}\n\n.slds-form-element__label{\n    font-weight:bold !important;\n}\n\n#input-35{\n    width : 48% !important;\n}\n\n#input-32{\n    width : 48% !important;\n}\n\n#input-47{\n    width : 48% !important;\n}\n\n.myAccount{\ndisplay:none; \n}\n\n/* Commenting for future UI purposes */\n/* FONT UPDATES */\nh2 {\n    font-size: 2rem !important;\n}\n\nh3 {\n    font-size: 1.75rem !important;\n}\n\nh4,\n.forceCommunityRichText h4,\n.forceCommunityTopArticleListForTopic .topicHeaderLink,\n.footerCmps h2 {\n\tfont-size: 1.313rem !important;\n}\n\n[style*=\"font-size\"],\n.selfServiceArticleLayout .meta,\n.siteforceThemeLayoutStarter,\n.selfServiceArticleLayout,\n.selfServiceArticleListItem .footer,\n.forceCommunityTopicCatalog .topicHierarchy-top,\n.forceCommunityTopArticleItem .article-title,\n.selfServiceArticleLayout .forcePageBlockSectionView.full .test-id__field-label,\n.selfServiceArticleLayout .forcePageBlockSectionView.full .test-id__grouped-field-label-icon,\n.selfServiceArticleListItem h2.article-head,\n.flowruntimeInputWrapper {\n    font-size: 1.25rem !important;\n}\n\n.forceCommunityHeadline h1.headlineTitle {\n    font-size: 3rem !important;\n}\n\n.forceChangeRecordType .changeRecordTypeLabel,\n.forcePageBlockItemEdit .dep-trigger.slds-button,\n.uiInput--default .form-element__help,\n.forceCommunityRecordListStandard .viewAllLink,\n.forceBaseListView thead th {\n    font-size: 1rem !important;\n}\n\n.slds-text-body_small,\nbody,\n.forceChangeRecordType .changeRecordTypeLeftColumn,\n.slds-radio .slds-form-element__label,\n.forceDetailPanelDesktop .uiInput .form-element__label,\n.slds-form-element__label,\n.uiButton--default,\n.slds-form-element__static,\n.forcePageError.desktop .genericNotification,\n.forcePageError.desktop .errorsList,\n.featured p,\n.popular a,\n.featuredTopics a,\n.announcementContainer div {\n    font-size: 1rem !important;\n}\n\n/* REMOVE CLOCK IMAGE */\n.updateProfileClock .img {\n    display: none !important;\n}\n\n.cVm_UpdateProfile_home button {\n    margin-left: 0 !important;\n} \n\n/* LINK COLOR\na {\n    color: #0773be !important;\n} */",
  "developerName" : "ember",
  "id" : "6115d5d6-2895-4fa4-8e5d-bc4ebb336183",
  "label" : "Ember",
  "layouts" : {
    "Inner" : "89f024d7-5113-40bc-bad2-e3faf75e3947",
    "Login" : "4ca984fe-c63a-4858-ba39-80382318ab96",
    "ServiceNotAvailable" : "d3e00360-b885-4cae-897c-fb1a951db37c"
  },
  "type" : "theme",
  "views" : [ {
    "componentAttributes" : { },
    "componentName" : "salesforceIdentity:loginBody2",
    "id" : "4ca984fe-c63a-4858-ba39-80382318ab96",
    "label" : "Login",
    "regions" : [ {
      "id" : "ad024dbb-3aba-499a-b07d-499421222414",
      "regionName" : "header",
      "type" : "region"
    }, {
      "id" : "decaa5ff-9f14-4855-8725-a6907e13d0fd",
      "regionName" : "content",
      "type" : "region"
    }, {
      "id" : "cf973831-a121-4bf5-a94b-85e44a6d7f20",
      "regionName" : "footer",
      "type" : "region"
    } ],
    "type" : "view"
  }, {
    "componentAttributes" : {
      "fixedPageWidth" : 1526,
      "headerBgColor" : "rgba(255, 255, 255, 0.8)",
      "isHeaderPinned" : true,
      "isHeroUnderHeader" : false,
      "isPageWidthFixed" : true,
      "showHeader" : true,
      "showHero" : true
    },
    "componentName" : "siteforce:themeLayoutStarter",
    "id" : "89f024d7-5113-40bc-bad2-e3faf75e3947",
    "label" : "Default",
    "regions" : [ {
      "components" : [ {
        "componentAttributes" : {
          "background" : "background: rgb(255,255,255)",
          "backgroundOverlayColor" : "rgba(0, 0, 0, 0.3)",
          "borderBottomColor" : "rgb(232, 232, 232)",
          "borderTopColor" : "rgb(232, 232, 232)",
          "bottomRowHeight" : 0,
          "bottomRowOverlayColor" : "rgb(245, 245, 245)",
          "containHeader" : true,
          "containHeaderWidth" : 1440,
          "dropdownBackgroundColor" : "rgb(255, 255, 255)",
          "dropdownBackgroundHoverColor" : "",
          "dropdownBorderColor" : "rgb(232, 232, 232)",
          "dropdownTextColor" : "rgb(7, 115, 190)",
          "dropdownTextHoverColor" : "rgb(7, 115, 190)",
          "iconLinkColor" : "rgb(0, 0, 0)",
          "iconLinkHoverColor" : "rgb(7, 115, 190)",
          "iconLinkTextShadowColor" : "rgba(255, 255, 255, 0.9)",
          "linkActiveBorderColor" : "rgba(255, 255, 255, 0)",
          "linkColor" : "rgb(35, 31, 32)",
          "linkHoverColor" : "rgb(7, 115, 190)",
          "linkTextShadowColor" : "rgba(255, 255, 255, 0)",
          "logoWidth" : 250,
          "searchPosition" : "right",
          "searchStyle" : "collapsed",
          "showAppLauncher" : false,
          "showNotifications" : false,
          "showProfileMenu" : true,
          "showSearch" : false,
          "topRowHeight" : 24
        },
        "componentName" : "forceCommunity:themeHeaderStacked",
        "id" : "8719ebca-4a8d-45bf-b10a-6d55788f0b40",
        "regions" : [ {
          "components" : [ {
            "componentAttributes" : {
              "accountManagementLabel" : "",
              "buttonBackgroundColor" : "inherit",
              "buttonBackgroundHoverColor" : "inherit",
              "buttonBorderColor" : "transparent",
              "buttonBorderRadius" : 5,
              "buttonText" : "Log in",
              "buttonTextColor" : "#fff",
              "buttonTextHoverColor" : "#0099de",
              "communityBuilderLabel" : "",
              "communitySetupLabel" : "",
              "contactSupportLabel" : "",
              "filterName" : "",
              "homeLabel" : "Home",
              "logoutLabel" : "Logout",
              "menuStyle" : "iconAndName",
              "messagesLabel" : "",
              "myAccountLabel" : "My Account",
              "showAccountManagement" : false,
              "showContactSupport" : false,
              "showMessages" : false,
              "showUserSettings" : false,
              "userSettingsLabel" : "",
              "viewProfileLabel" : "My Profile"
            },
            "componentName" : "forceCommunity:themeProfileMenu",
            "id" : "64382f5d-3181-47fa-a9db-623f9d24bfa6",
            "renditionMap" : { },
            "type" : "component"
          } ],
          "id" : "9e6233e6-8717-4a62-8cc9-8328378b6df8",
          "regionName" : "themeHeaderProfileMenu",
          "type" : "region"
        }, {
          "components" : [ {
            "componentAttributes" : {
              "backgroundColor" : "#fff",
              "borderColor" : "transparent",
              "borderRadius" : 5,
              "borderStyle" : "outline",
              "buttonColor" : "rgba(255,255,255,1)",
              "buttonHoverColor" : "rgba(0,0,0,0.2)",
              "crossObjectTypeaheadApiNames" : [ {
                "isPublic" : false,
                "name" : "Role__c"
              } ],
              "iconColor" : "#000",
              "placeholderText" : "Search...",
              "placeholderTextColor" : "#000",
              "showSearchButton" : false,
              "textColor" : "#000",
              "typeaheadResultMax" : 6,
              "useTypeahead" : false
            },
            "componentName" : "forceCommunity:themeSearch",
            "id" : "16cdc522-06a9-42f7-b31e-4a2e82345422",
            "renditionMap" : { },
            "type" : "component"
          } ],
          "id" : "bbf804a4-3c1d-42c2-95a9-aa32985fa9ef",
          "regionName" : "search",
          "type" : "region"
        }, {
          "components" : [ {
            "componentAttributes" : {
              "navAlignment" : "left",
              "navItemThreshold" : 8,
              "navigationMenuEditorRefresh" : "Default_Navigation6"
            },
            "componentName" : "forceCommunity:themeNav",
            "id" : "8c4cac39-e3db-42df-beba-a986c2f60d7c",
            "renditionMap" : { },
            "type" : "component"
          } ],
          "id" : "b88d36b3-6cd8-45d6-be93-6b4949376d67",
          "regionName" : "nav",
          "type" : "region"
        }, {
          "id" : "c26995e6-71d4-4fc6-bb68-0a184f246e38",
          "regionName" : "cartIcon",
          "type" : "region"
        } ],
        "renditionMap" : { },
        "type" : "component"
      } ],
      "id" : "5e270923-6472-4091-8032-af2f137d6197",
      "regionName" : "themeHeader",
      "type" : "region"
    }, {
      "components" : [ {
        "componentAttributes" : {
          "bgImage" : "background: rgb(255,255,255) url(/sfsites/c/file-asset/Hero_L3_4688396151?v=1) center center /cover",
          "bgOverlayColor" : "rgba(0, 0, 0, 0.5)",
          "captionText" : "Caption Content",
          "captionTextColor" : "rgba(0, 0, 0, 0.8)",
          "captionTextShadowColor" : "rgba(0, 0, 0, 0)",
          "contentAlignment" : "center",
          "contentWidth" : 100,
          "ctaBtnOneBgColor" : "",
          "ctaBtnOneBgHoverColor" : "",
          "ctaBtnOneBorderColor" : "rgba(0, 0, 0, 0)",
          "ctaBtnOneOpenNewTab" : false,
          "ctaBtnOneText" : "Primary",
          "ctaBtnOneTextColor" : "",
          "ctaBtnOneTextHoverColor" : "",
          "ctaBtnOneUrl" : "",
          "ctaBtnRadius" : 4,
          "ctaBtnTwoBgColor" : "rgba(255, 255, 255, 0)",
          "ctaBtnTwoBgHoverColor" : "rgba(255, 255, 255, 0.9)",
          "ctaBtnTwoBorderColor" : "rgba(0, 0, 0, 0.8)",
          "ctaBtnTwoOpenNewTab" : false,
          "ctaBtnTwoText" : "Secondary",
          "ctaBtnTwoTextColor" : "rgba(0, 0, 0, 0.8)",
          "ctaBtnTwoTextHoverColor" : "rgba(0, 0, 0, 0.8)",
          "ctaBtnTwoUrl" : "",
          "ctaShowBtnOne" : false,
          "ctaShowBtnTwo" : true,
          "fixedHeroWidth" : true,
          "heroHeight" : 40,
          "heroWidth" : 1920,
          "showCaption" : false,
          "showSubtitle" : false,
          "showTitle" : true,
          "subtitleText" : "Subtitle Content",
          "subtitleTextColor" : "rgba(0, 0, 0, 0.8)",
          "subtitleTextShadowColor" : "rgba(0, 0, 0, 0)",
          "titleText" : "Volunteer Community",
          "titleTextColor" : "rgb(251, 251, 251)",
          "titleTextShadowColor" : "rgba(0, 0, 0, 0)",
          "type" : "callToAction"
        },
        "componentName" : "forceCommunity:themeHeroStarter",
        "id" : "ae70fbec-2e77-48f1-aa20-c13abc0fff79",
        "regions" : [ {
          "components" : [ {
            "componentAttributes" : {
              "backgroundColor" : "rgb(255, 255, 255)",
              "borderColor" : "rgba(0, 0, 0, 0.2)",
              "borderRadius" : 4,
              "borderStyle" : "outline",
              "buttonColor" : "",
              "buttonHoverColor" : "",
              "crossObjectTypeaheadApiNames" : "",
              "iconColor" : "rgb(255, 255, 255)",
              "placeholderText" : "Ask a question...",
              "placeholderTextColor" : "rgba(0, 0, 0, 0.6)",
              "publicDropdownBackgroundColor" : "rgb(255, 255, 255)",
              "publicDropdownBackgroundHoverColor" : "",
              "publicDropdownBorderColor" : "rgb(240, 240, 240)",
              "publicDropdownTextColor" : "",
              "publicDropdownTextHoverColor" : "",
              "showSearchButton" : true,
              "textColor" : "rgba(0, 0, 0, 0.8)",
              "typeaheadResultMax" : 6,
              "useTypeahead" : true
            },
            "componentName" : "forceCommunity:themeSearchHero",
            "id" : "f4d1fc3f-de3e-4901-b9bd-f64c54d9e3a5",
            "renditionMap" : { },
            "type" : "component"
          } ],
          "id" : "6ea56553-c466-41a3-aeeb-ca692f16dd10",
          "regionName" : "search",
          "type" : "region"
        } ],
        "renditionMap" : { },
        "type" : "component"
      } ],
      "id" : "c5f6cc18-56b5-4ea4-9fb8-7069de9ddd77",
      "regionName" : "themeHero",
      "type" : "region"
    }, {
      "components" : [ {
        "componentAttributes" : {
          "align" : "center",
          "container" : "x-large",
          "customClass" : "a[c-navigationLink_navigationLink] {color: white !important; }",
          "userLink1" : "https://www.cfainstitute.org/en/utility/contact-us",
          "userLink1OpenInNewPage" : false,
          "userLink1Text" : "Contact Us",
          "userLink2" : "https://www.cfainstitute.org/en/about/governance/policies/privacy-policy",
          "userLink2OpenInNewPage" : false,
          "userLink2Text" : "Privacy Policy",
          "userLink3" : "https://www.cfainstitute.org/en/ethics-standards/conduct/report-misconduct",
          "userLink3OpenInNewPage" : false,
          "userLink3Text" : "Report Misconduct",
          "userLink4" : "https://www.cfainstitute.org/about/careers",
          "userLink4OpenInNewPage" : false,
          "userLink4Text" : "Careers at CFA Institute",
          "userLink5" : "https://www.cfainstitute.org/en/about/governance/policies/terms-conditions",
          "userLink5OpenInNewPage" : false,
          "userLink5Text" : "Terms & Conditions",
          "userLink6" : "https://www.cfainstitute.org/en/utility/sitemap",
          "userLink6OpenInNewPage" : false,
          "userLink6Text" : "Sitemap",
          "userLink7OpenInNewPage" : false,
          "userLink8OpenInNewPage" : false
        },
        "componentName" : "c:footerNavigation",
        "id" : "f2a4c5e7-5fb8-402c-803c-107a3c3c1661",
        "renditionMap" : { },
        "type" : "component"
      }, {
        "componentAttributes" : {
          "richTextValue" : "<p style=\"text-align: center;\"><span style=\"background-color: rgb(102, 102, 102); font-size: 18px; color: rgb(255, 255, 255);\">© 2020 CFA Institute. All Rights Reserved.</span></p>"
        },
        "componentName" : "forceCommunity:richTextInline",
        "id" : "e355a17d-1b03-4c90-a1a7-8611bc695497",
        "renditionMap" : { },
        "type" : "component"
      }, {
        "componentAttributes" : { },
        "componentName" : "c:x7s_Social_Footer",
        "id" : "b2577ae6-5a2e-4033-8813-00f2a521f162",
        "renditionMap" : { },
        "type" : "component"
      } ],
      "id" : "57c2a7d9-3221-4356-9020-24889414f0c3",
      "regionName" : "themeFooter",
      "type" : "region"
    } ],
    "type" : "view"
  }, {
    "componentAttributes" : {
      "fixedPageWidth" : 1170,
      "headerBgColor" : "rgba(0, 0, 0, 0)",
      "isHeaderPinned" : false,
      "isHeroUnderHeader" : false,
      "isPageWidthFixed" : true,
      "showHeader" : true,
      "showHero" : true
    },
    "componentName" : "siteforce:themeLayoutStarter",
    "id" : "d3e00360-b885-4cae-897c-fb1a951db37c",
    "label" : "ServiceNotAvailable",
    "regions" : [ {
      "id" : "ab0bdf97-1ec3-4ada-a7ba-4e23f3aecbf1",
      "regionName" : "themeHeader",
      "type" : "region"
    }, {
      "id" : "1522495c-7564-4cef-884b-70f8644786f9",
      "regionName" : "themeFooter",
      "type" : "region"
    } ],
    "type" : "view"
  } ]
}