{
  "activeViewId" : "cdc0809e-3b3d-48ae-8401-39d012e9abd6",
  "appPageId" : "92034fee-2a5a-4602-b58b-7f635d198d78",
  "configurationTags" : [ ],
  "id" : "95bc60e3-1390-42d5-ac69-61af29daa391",
  "label" : "Case List",
  "routeType" : "list-500",
  "type" : "route",
  "urlPrefix" : "case"
}