{
  "activeViewId" : "36187956-1288-4767-9f41-a4aff269f246",
  "appPageId" : "92034fee-2a5a-4602-b58b-7f635d198d78",
  "configurationTags" : [ ],
  "id" : "3e83abf3-d913-4f56-8b85-0e560011b71b",
  "label" : "Case Related List",
  "routeType" : "relatedlist-500",
  "type" : "route",
  "urlPrefix" : "case"
}