{
  "activeViewId" : "463f0a37-3563-4cb2-a883-ce6da3740ce2",
  "appPageId" : "92034fee-2a5a-4602-b58b-7f635d198d78",
  "configurationTags" : [ ],
  "id" : "d786163b-b64b-4da6-afda-6c534b142fb5",
  "label" : "File Detail",
  "routeType" : "detail-069",
  "type" : "route",
  "urlPrefix" : "contentdocument"
}