{
  "activeViewId" : "ec0f00cf-8aca-4c1c-bc97-11b64e96aacc",
  "appPageId" : "92034fee-2a5a-4602-b58b-7f635d198d78",
  "configurationTags" : [ ],
  "id" : "2ea2bf3e-cff8-454b-9363-7ec2eb483f87",
  "label" : "Group Related List",
  "routeType" : "relatedlist-0F9",
  "type" : "route",
  "urlPrefix" : "group"
}