{
  "activeViewId" : "8aa33c0d-99d7-4aa3-b583-0cdd36a63c31",
  "appPageId" : "92034fee-2a5a-4602-b58b-7f635d198d78",
  "configurationTags" : [ ],
  "id" : "806ade85-d979-4425-92fc-fc60cbdb9505",
  "label" : "MDF and Coop",
  "routeType" : "mdf",
  "type" : "route",
  "urlPrefix" : "mdf"
}