{
  "activeViewId" : "9f53e256-72ee-4a7d-8720-0d8ba656f9b5",
  "appPageId" : "92034fee-2a5a-4602-b58b-7f635d198d78",
  "configurationTags" : [ ],
  "id" : "76618f28-21aa-4c2d-9cc0-1c6ef45d2d60",
  "label" : "Question Detail",
  "routeType" : "feeditem",
  "type" : "route",
  "urlPrefix" : "question"
}