{
  "activeViewId" : "8e90d0f0-3fb6-4068-ba7d-2fb37e632fc0",
  "appPageId" : "92034fee-2a5a-4602-b58b-7f635d198d78",
  "configurationTags" : [ ],
  "id" : "a9cda1a4-8ce3-4292-8477-d34ceb0cb279",
  "label" : "Quip Docs Related List",
  "pageAccess" : "UseParent",
  "routeType" : "extrelated-quip",
  "type" : "route",
  "urlPrefix" : "quip"
}