{
  "activeViewId" : "ce63a19f-9a00-49a1-932a-d12ecbfc4504",
  "appPageId" : "92034fee-2a5a-4602-b58b-7f635d198d78",
  "configurationTags" : [ ],
  "id" : "831e1db6-fc15-47a8-ab70-f3e8a636aee7",
  "label" : "Report List",
  "routeType" : "list-00O",
  "type" : "route",
  "urlPrefix" : "report"
}