{
  "activeViewId" : "5200e0dc-4118-4220-8958-02bcd46cc0d4",
  "appPageId" : "92034fee-2a5a-4602-b58b-7f635d198d78",
  "configurationTags" : [ ],
  "id" : "df28326f-997e-4936-8611-edea5a7321b7",
  "label" : "User List",
  "routeType" : "list-005",
  "type" : "route",
  "urlPrefix" : "profile"
}