{
  "componentVariants" : [ {
    "id" : "71bb0cc5-8ab0-4a44-9b61-3cfb507d8965",
    "propertyOverrides" : {
      "activeViewId" : "8850ad7b-5777-49e6-a4ad-c145280b1bb1"
    },
    "targetId" : "375f2eef-ee76-4cf8-b840-638d21060e88",
    "type" : "componentVariant"
  } ],
  "developerName" : "Home_Medical_Reviewer_Homepage_Page",
  "id" : "9ab1e075-9876-43b6-9eac-af09bd88eeac",
  "type" : "experienceVariation"
}