{
  "appPageId" : "48a8bf6c-7c92-4b70-af72-9627cd289bfa",
  "componentName" : "siteforce:sldsOneColLayout",
  "id" : "aa58e64d-6ffc-4d31-85be-1672ddcef828",
  "label" : "Case Detail",
  "regions" : [ {
    "id" : "b223f648-e608-4b17-acf1-27619c4d91f8",
    "regionName" : "header",
    "type" : "region"
  }, {
    "components" : [ {
      "componentAttributes" : {
        "recordId" : "{!recordId}"
      },
      "componentName" : "forceCommunity:recordHeadline",
      "id" : "c8a000d8-3aa5-4df0-b8a8-3f2d5673cd43",
      "renderPriority" : "NEUTRAL",
      "renditionMap" : { },
      "type" : "component"
    }, {
      "componentAttributes" : {
        "detailsTabLabel" : "Details",
        "discussionsTabLabel" : "Feed",
        "recordId" : "{!recordId}",
        "relatedTabLabel" : "Related",
        "tab1Type" : "details",
        "tab2Type" : "related",
        "tab3Type" : "chatter",
        "tab4Type" : "none",
        "timelineTabLabel" : "Activity"
      },
      "componentName" : "forceCommunity:recordHomeTabs",
      "id" : "4e2d6689-4301-4884-be5b-f4ca835b71f1",
      "renderPriority" : "NEUTRAL",
      "renditionMap" : { },
      "type" : "component"
    } ],
    "id" : "aac2b901-13f5-4759-920d-8e2cb112ed1a",
    "regionName" : "content",
    "type" : "region"
  }, {
    "id" : "d05e7908-137a-44a8-90e6-19b3ab3375d9",
    "regionName" : "footer",
    "type" : "region"
  }, {
    "components" : [ {
      "componentAttributes" : {
        "customHeadTags" : "",
        "description" : "",
        "title" : "{!Record._Object}: {!Record._Title}"
      },
      "componentName" : "forceCommunity:seoAssistant",
      "id" : "114d8253-6434-4411-9a34-1395b35787a3",
      "renditionMap" : { },
      "type" : "component"
    } ],
    "id" : "4945bdfd-97f9-4b33-9da0-65951018161e",
    "regionName" : "sfdcHiddenRegion",
    "type" : "region"
  } ],
  "themeLayoutType" : "Inner",
  "type" : "view",
  "viewType" : "detail-500"
}