{
  "appPageId" : "48a8bf6c-7c92-4b70-af72-9627cd289bfa",
  "componentName" : "siteforce:sldsTwoCol66Layout",
  "id" : "e2cd6af8-65f7-4c07-83e2-364729deb5c2",
  "label" : "Contact Support",
  "regions" : [ {
    "id" : "d6e8c082-6312-41d4-acb8-5a7e19c3bc5e",
    "regionName" : "header",
    "type" : "region"
  }, {
    "components" : [ {
      "componentAttributes" : {
        "allowAttachments" : true,
        "attachmentLabel" : "Upload File",
        "callToAction" : false,
        "callToActionButtonText" : "",
        "callToActionText" : "",
        "callToActionUrl" : "",
        "confirmationSubtext" : "We’ll get back to you soon.",
        "confirmationText" : "Your case was created.",
        "guestQuickActionName" : "Select or configure a global action",
        "headerSubtitle" : "Tell us how we can help.",
        "headerTitle" : "Contact Customer Support",
        "quickActionName" : "NewCase",
        "requestSummaryText" : "Case summary"
      },
      "componentName" : "forceCommunity:contactSupportForm",
      "id" : "668e89f0-f2d4-48d8-b72d-e6babee0e99c",
      "renderPriority" : "NEUTRAL",
      "renditionMap" : { },
      "type" : "component"
    } ],
    "id" : "9ed22c88-9642-4b5f-8093-7849c9f6a4d5",
    "regionName" : "content",
    "type" : "region"
  }, {
    "components" : [ {
      "componentAttributes" : {
        "askConfirmationQuestion" : true,
        "confirmationMessageLabel" : "Got it!",
        "deflectionSubtitle" : "Find what you need here.",
        "deflectionTitle" : "Need Answers Fast?",
        "firstQuestion" : "Did this content solve your issue?",
        "maxResults" : 6,
        "measureDeflection" : true,
        "redirectUrl" : "",
        "secondQuestion" : "Stop creating your case?",
        "showArticles" : true,
        "showDiscussions" : false,
        "topicId" : ""
      },
      "componentName" : "forceCommunity:caseDeflection",
      "id" : "2f22f21a-34b2-4efa-947d-e7fde76d3a0e",
      "renderPriority" : "NEUTRAL",
      "renditionMap" : { },
      "type" : "component"
    } ],
    "id" : "17981548-bfe0-4d89-9fb1-ab0dafb40f15",
    "regionName" : "sidebar",
    "type" : "region"
  }, {
    "id" : "67bbd4ec-cce2-4435-992b-6388b0fbb686",
    "regionName" : "footer",
    "type" : "region"
  }, {
    "components" : [ {
      "componentAttributes" : {
        "customHeadTags" : "",
        "description" : "",
        "title" : "Contact Support"
      },
      "componentName" : "forceCommunity:seoAssistant",
      "id" : "e064c852-759e-48dc-8dc6-e49b376dc370",
      "renditionMap" : { },
      "type" : "component"
    } ],
    "id" : "949ea45d-894a-4a88-9e65-62b9419bc352",
    "regionName" : "sfdcHiddenRegion",
    "type" : "region"
  } ],
  "themeLayoutType" : "Inner",
  "type" : "view",
  "viewType" : "contactsupport"
}