{
  "appPageId" : "48a8bf6c-7c92-4b70-af72-9627cd289bfa",
  "componentName" : "siteforce:sldsOneColLayout",
  "id" : "00e099e0-1c80-4e72-9dcf-e7d189e5c33a",
  "label" : "Related Record List",
  "regions" : [ {
    "id" : "623a7549-f12c-4fe5-b924-6778c1a63775",
    "regionName" : "header",
    "type" : "region"
  }, {
    "components" : [ {
      "componentAttributes" : {
        "customTitle" : "",
        "parentRecordId" : "{!recordId}",
        "relatedListName" : "{!relationshipApiName}",
        "showBreadCrumbs" : true,
        "showCustomTitle" : false,
        "showManualRefreshButton" : true,
        "showRowNumbers" : true
      },
      "componentName" : "forceCommunity:relatedList",
      "id" : "6060881b-3977-4bc8-bf79-b9f6f444f080",
      "renderPriority" : "NEUTRAL",
      "renditionMap" : { },
      "type" : "component"
    } ],
    "id" : "370c5d01-6eb1-4124-9d89-214644988515",
    "regionName" : "content",
    "type" : "region"
  }, {
    "id" : "ccfe9b53-aef2-4d6e-8f59-408ad147560b",
    "regionName" : "footer",
    "type" : "region"
  } ],
  "themeLayoutType" : "Inner",
  "type" : "view",
  "viewType" : "relatedlist"
}