{
  "activeViewId" : "6ae82cbc-8ceb-4104-b655-1ede4b15b2f3",
  "appPageId" : "07623fc2-e7b6-4ae6-852e-03d1b49754a4",
  "configurationTags" : [ ],
  "id" : "76c5487b-258d-44b9-aefc-19a4598158ea",
  "label" : "Group Detail",
  "routeType" : "detail-0F9",
  "type" : "route",
  "urlPrefix" : "group"
}