{
  "activeViewId" : "9cdaf3d7-6ad9-4f58-8814-631eb3a86d3d",
  "appPageId" : "07623fc2-e7b6-4ae6-852e-03d1b49754a4",
  "configurationTags" : [ ],
  "id" : "bd050ff5-32bd-4cd2-b9d7-8df8340e63b0",
  "label" : "Topic Detail",
  "routeType" : "topic",
  "type" : "route",
  "urlPrefix" : "topic"
}