{
  "appPageId" : "07623fc2-e7b6-4ae6-852e-03d1b49754a4",
  "componentName" : "siteforce:sldsOneColLayout",
  "id" : "bf827e4f-0fd4-4073-afb2-dbc97499668c",
  "label" : "Case Detail",
  "regions" : [ {
    "components" : [ {
      "componentAttributes" : {
        "caseRecordId" : "{!recordId}",
        "recordId" : "{!recordId}"
      },
      "componentName" : "c:cfa_case_ada_files",
      "id" : "7ea7e28b-9a3f-4a59-b407-ef35a95db79f",
      "renderPriority" : "NEUTRAL",
      "renditionMap" : { },
      "type" : "component"
    } ],
    "id" : "f1ac310b-d521-478a-ae8a-b84f5543af88",
    "regionName" : "header",
    "type" : "region"
  }, {
    "components" : [ {
      "componentAttributes" : {
        "recordId" : "{!recordId}"
      },
      "componentName" : "forceCommunity:recordDetail",
      "id" : "7ee80ca3-e836-4d34-9d49-76cfa95ec8ab",
      "renderPriority" : "NEUTRAL",
      "renditionMap" : { },
      "type" : "component"
    } ],
    "id" : "31b2d6ac-9fe1-4b08-8df4-c1c7501e00f5",
    "regionName" : "content",
    "type" : "region"
  }, {
    "id" : "88e3a7ca-7e6d-4997-8965-9f96222bef09",
    "regionName" : "footer",
    "type" : "region"
  }, {
    "components" : [ {
      "componentAttributes" : {
        "customHeadTags" : "",
        "description" : "",
        "title" : "{!Record._Object}: {!Record._Title}"
      },
      "componentName" : "forceCommunity:seoAssistant",
      "id" : "ddcc920a-c7ac-401c-877e-08195530cbe5",
      "renditionMap" : { },
      "type" : "component"
    } ],
    "id" : "eac8b09f-9c10-4385-8755-2cd5adf6216d",
    "regionName" : "sfdcHiddenRegion",
    "type" : "region"
  } ],
  "themeLayoutType" : "Inner",
  "type" : "view",
  "viewType" : "detail-500"
}