{
  "appPageId" : "07623fc2-e7b6-4ae6-852e-03d1b49754a4",
  "componentName" : "siteforce:sldsOneColLayout",
  "id" : "6ae82cbc-8ceb-4104-b655-1ede4b15b2f3",
  "label" : "Group Detail",
  "regions" : [ {
    "id" : "2df7c8c4-06d3-45ff-b2b4-f66de85d204c",
    "regionName" : "header",
    "type" : "region"
  }, {
    "components" : [ {
      "componentAttributes" : {
        "detailsTabLabel" : "Details",
        "engagementManagersOnly" : false,
        "engagementTabLabel" : "Engagement",
        "feedTabLabel" : "Feed",
        "recordId" : "{!recordId}",
        "relatedTabLabel" : "Related"
      },
      "componentName" : "forceCommunity:groupRecordHomeTabs",
      "id" : "2bd90e07-f90f-4cc8-9b2e-7eef8e61c6a9",
      "renderPriority" : "NEUTRAL",
      "renditionMap" : { },
      "type" : "component"
    } ],
    "id" : "1ebb61b9-c17a-4de7-b011-b071ae551fb5",
    "regionName" : "content",
    "type" : "region"
  }, {
    "id" : "ec70a7b7-6dc8-41fa-8730-07de5f4947e0",
    "regionName" : "footer",
    "type" : "region"
  }, {
    "components" : [ {
      "componentAttributes" : {
        "customHeadTags" : "",
        "description" : "",
        "title" : "{!Record._Object}: {!Record._Title}"
      },
      "componentName" : "forceCommunity:seoAssistant",
      "id" : "adf11623-27e3-41cf-b53c-7aaa206ec552",
      "renditionMap" : { },
      "type" : "component"
    } ],
    "id" : "c82b9493-cf5c-4905-810f-01c966689d76",
    "regionName" : "sfdcHiddenRegion",
    "type" : "region"
  } ],
  "themeLayoutType" : "Inner",
  "type" : "view",
  "viewType" : "detail-0F9"
}