{
  "appPageId" : "07623fc2-e7b6-4ae6-852e-03d1b49754a4",
  "componentName" : "siteforce:sldsOneColLayout",
  "id" : "c0e71297-d0db-4f35-9df4-61e3aa7b49d3",
  "label" : "Report Builder",
  "regions" : [ {
    "id" : "d786c31c-4d3b-4727-b75b-ae8db258a315",
    "regionName" : "header",
    "type" : "region"
  }, {
    "components" : [ {
      "componentAttributes" : {
        "recordId" : "{!recordId}"
      },
      "componentName" : "forceCommunity:reportBuilder",
      "id" : "5e5b8963-3dba-45f8-a9af-59f4e2b1c0b6",
      "renderPriority" : "NEUTRAL",
      "renditionMap" : { },
      "type" : "component"
    } ],
    "id" : "8423961d-8c6e-4b5b-92e1-9ac967e37f62",
    "regionName" : "content",
    "type" : "region"
  }, {
    "id" : "86ae3f02-6eee-4689-87a3-5ae1af7f1be8",
    "regionName" : "footer",
    "type" : "region"
  } ],
  "themeLayoutType" : "Inner",
  "type" : "view",
  "viewType" : "createreport"
}