{
  "appPageId" : "07623fc2-e7b6-4ae6-852e-03d1b49754a4",
  "componentName" : "siteforce:dynamicLayout",
  "id" : "36df3b04-f597-40a8-aece-18b50d89fb8d",
  "label" : "Unauthenticated",
  "regions" : [ {
    "components" : [ {
      "componentAttributes" : {
        "background" : "background: rgb(245,245,245)",
        "backgroundOverlay" : "rgba(255,255,255,0.7)",
        "contentAreaWidth" : 100,
        "sectionConfig" : {
          "UUID" : "bd078c66-7277-422e-83f1-1f0596eb2532",
          "columns" : [ {
            "UUID" : "eece729c-3fe3-4d15-8b7e-b72a5ff364d4",
            "columnKey" : "1",
            "columnName" : "Column 1",
            "columnWidth" : "12",
            "seedComponents" : [ ]
          } ]
        },
        "sectionHeight" : 80
      },
      "componentName" : "forceCommunity:section",
      "id" : "bd078c66-7277-422e-83f1-1f0596eb2532",
      "regions" : [ {
        "components" : [ {
          "componentAttributes" : { },
          "componentName" : "c:x7sAnnouncements",
          "id" : "2af0d67f-52b3-4b79-b1cb-945c70ccbd0f",
          "renderPriority" : "NEUTRAL",
          "renditionMap" : { },
          "type" : "component"
        }, {
          "componentAttributes" : {
            "richTextValue" : "<div class=\"featured\">\n\t<h3>Featured Articles</h3>\n\t<p>Find answers to your frequently asked questions on your account, program registration, the CFA® exam, and CFA Institute membership.</p>\n</div>"
          },
          "componentName" : "forceCommunity:htmlBlock",
          "id" : "93afb3dd-a07e-4e5c-9c80-6ec4d06ea820",
          "renderPriority" : "NEUTRAL",
          "renditionMap" : { },
          "type" : "component"
        } ],
        "id" : "eece729c-3fe3-4d15-8b7e-b72a5ff364d4",
        "regionLabel" : "Column 1",
        "regionName" : "1",
        "renditionMap" : { },
        "type" : "region"
      } ],
      "renderPriority" : "NEUTRAL",
      "renditionMap" : { },
      "type" : "component"
    }, {
      "componentAttributes" : {
        "background" : "background: rgb(245,245,245)",
        "backgroundOverlay" : "rgba(255,255,255,0.7)",
        "contentAreaWidth" : 100,
        "sectionConfig" : {
          "UUID" : "be5f5d65-7bd2-49c2-9493-bb5cf6e9a49f",
          "columns" : [ {
            "UUID" : "bf9ea47b-df4c-4496-8b6f-57427aefc68b",
            "columnKey" : "1",
            "columnName" : "Column 1",
            "columnWidth" : "8",
            "seedComponents" : [ ]
          }, {
            "UUID" : "7853d475-60ec-4dcb-99ad-f5d890a0a902",
            "columnKey" : "67d63",
            "columnName" : "Column 2",
            "columnWidth" : "4",
            "seedComponents" : [ ]
          } ]
        },
        "sectionHeight" : 200
      },
      "componentName" : "forceCommunity:section",
      "id" : "be5f5d65-7bd2-49c2-9493-bb5cf6e9a49f",
      "regions" : [ {
        "components" : [ {
          "componentAttributes" : {
            "richTextValue" : "<div class=\"popular\">\n<h3>Popular Inquiries</h3>\n<p><a href=\"/s/article/Login-Trouble\">Login Trouble</a></p>\n<p><a href=\"/s/article/Updating-Your-Name\">Updating Your Name</a></p>\n<p><a href=\"/s/article/CFA-Program-CBT-exam-appointment-availability\">CFA Program CBT exam appointment availability</a></p>\n<p><a href=\"/s/article/Both-my-June-and-December-2020-exams-were-postponed-due-to-COVID-How-do-I-request-a-refund\">Refund information for candidates impacted twice by COVID-19 related cancellations</a></p>\n<p><a href=\"/s/article/What-will-be-the-protocol-for-safe-testing-at-Prometric\">What safety practices and protocols are in place at Prometric test centers (CIPM and CBT exams)?</a></p>\n<p><a href=\"/s/topic/0TO3Z000000YyXY\">View all questions ></a></p>\n</div>"
          },
          "componentName" : "forceCommunity:htmlBlock",
          "id" : "fbfd802e-f8a5-43ab-acea-a59b59641ff2",
          "renderPriority" : "NEUTRAL",
          "renditionMap" : { },
          "type" : "component"
        } ],
        "id" : "bf9ea47b-df4c-4496-8b6f-57427aefc68b",
        "regionLabel" : "Column 1",
        "regionName" : "1",
        "renditionMap" : { },
        "type" : "region"
      }, {
        "components" : [ {
          "componentAttributes" : {
            "richTextValue" : "<div class=\"featuredTopics\">\n<h3>Featured Topics</h3>\n<p><a href=\"/s/topic/0TO3Z000000cDX0\">COVID-19</a></p>\n<p><a href=\"/s/topic/0TO3Z000000YyXT\">CFA Program</a></p>\n<p><a href=\"/s/topic/0TO3Z000000YyXb\">Policy</a></p>\n<p><a href=\"/s/topic/0TO3Z000000YyXW\">Membership</a></p>\n<p><a href=\"/s/topic/0TO3Z000000YyXa\">Identification</a></p>\n<p><a href=\"/s/toparticles\">View all topics ></a></p>\n</div>"
          },
          "componentName" : "forceCommunity:htmlBlock",
          "id" : "75c9a633-dbb6-4649-8300-27a3e5c432c4",
          "renderPriority" : "NEUTRAL",
          "renditionMap" : { },
          "type" : "component"
        } ],
        "id" : "7853d475-60ec-4dcb-99ad-f5d890a0a902",
        "regionLabel" : "Column 2",
        "regionName" : "67d63",
        "renditionMap" : { },
        "type" : "region"
      } ],
      "renderPriority" : "NEUTRAL",
      "renditionMap" : { },
      "type" : "component"
    }, {
      "componentAttributes" : {
        "background" : "background: rgb(245,245,245)",
        "backgroundOverlay" : "rgba(255,255,255,0.7)",
        "contentAreaWidth" : 100,
        "sectionConfig" : {
          "UUID" : "4c948ee2-8650-462b-b408-e4573e0581a9",
          "columns" : [ {
            "UUID" : "323a6f42-0624-4289-993e-198ca3927a97",
            "columnKey" : "1",
            "columnName" : "Column 1",
            "columnWidth" : "12",
            "seedComponents" : [ ]
          } ]
        },
        "sectionHeight" : 60
      },
      "componentName" : "forceCommunity:section",
      "id" : "4c948ee2-8650-462b-b408-e4573e0581a9",
      "regions" : [ {
        "components" : [ {
          "componentAttributes" : {
            "richTextValue" : "<div class=\"featured\">\n\t<h3>Contact Us</h3>\n</div>"
          },
          "componentName" : "forceCommunity:htmlBlock",
          "id" : "5fa37e5e-d1a9-4dbe-a5d4-c80936dd7e03",
          "renderPriority" : "NEUTRAL",
          "renditionMap" : { },
          "type" : "component"
        } ],
        "id" : "323a6f42-0624-4289-993e-198ca3927a97",
        "regionLabel" : "Column 1",
        "regionName" : "1",
        "renditionMap" : { },
        "type" : "region"
      } ],
      "renderPriority" : "NEUTRAL",
      "renditionMap" : { },
      "type" : "component"
    }, {
      "componentAttributes" : {
        "background" : "background: rgb(0,47,108)",
        "backgroundOverlay" : "rgba(255,255,255,0.7)",
        "contentAreaWidth" : 100,
        "sectionConfig" : {
          "UUID" : "ed1591e9-b050-415c-873f-7db5260329a5",
          "columns" : [ {
            "UUID" : "b0b4a061-a517-4a40-8205-29915972f639",
            "columnKey" : "1",
            "columnName" : "Column 1",
            "columnWidth" : "12",
            "seedComponents" : [ ]
          } ]
        },
        "sectionHeight" : 150
      },
      "componentName" : "forceCommunity:section",
      "id" : "ed1591e9-b050-415c-873f-7db5260329a5",
      "regions" : [ {
        "components" : [ {
          "componentAttributes" : {
            "ButtonURL" : "/s/contactsupport"
          },
          "componentName" : "c:x7sAskAQuestion",
          "id" : "a49ab243-a81a-40e7-a8bc-c1a19a38e4f5",
          "renderPriority" : "NEUTRAL",
          "renditionMap" : { },
          "type" : "component"
        } ],
        "id" : "b0b4a061-a517-4a40-8205-29915972f639",
        "regionLabel" : "Column 1",
        "regionName" : "1",
        "renditionMap" : { },
        "type" : "region"
      } ],
      "renderPriority" : "NEUTRAL",
      "renditionMap" : { },
      "type" : "component"
    }, {
      "componentAttributes" : {
        "background" : "background: rgb(245,245,245)",
        "backgroundOverlay" : "rgba(255,255,255,0.7)",
        "contentAreaWidth" : 100,
        "sectionConfig" : {
          "UUID" : "63c91b8f-678b-47df-964e-a83294264cc0",
          "columns" : [ {
            "UUID" : "acbc57e5-3c31-479d-8578-27bfcc5fcaff",
            "columnKey" : "1",
            "columnName" : "Column 1",
            "columnWidth" : "4",
            "seedComponents" : [ ]
          }, {
            "UUID" : "8fccd8e4-30e5-416f-aaa7-6bf6c74e8892",
            "columnKey" : "64088",
            "columnName" : "Column 2",
            "columnWidth" : "4",
            "seedComponents" : [ ]
          }, {
            "UUID" : "7138e530-5b1e-495d-9656-6f43f22a5486",
            "columnKey" : "3445b",
            "columnName" : "Column 3",
            "columnWidth" : "4",
            "seedComponents" : [ ]
          } ]
        },
        "sectionHeight" : 300
      },
      "componentName" : "forceCommunity:section",
      "id" : "63c91b8f-678b-47df-964e-a83294264cc0",
      "regions" : [ {
        "components" : [ {
          "componentAttributes" : {
            "richTextValue" : "<div class=\"sendMessage\">\n    <img src=\"https://cfainstitute.force.com/societyhub/resource/1582220683000/SelfService/images/email.png\">\n    <h3>Email Us</h3>\n    <p>Please include your full name and CFA \nInstitute ID with your message to \nensure we can assist you as quickly \n        as possible.</p>\n    <p><a href=\"mailto:info@cfainstitute.org\">Email Us ></a></p>\n   <!-- <p><a href=\"https://twitter.com/askcfainstitute\">@askcfainstitute ></a></p> -->\n</div>"
          },
          "componentName" : "forceCommunity:htmlBlock",
          "id" : "3dbdd1c2-b04d-4a04-9220-bb8795deb7a4",
          "renderPriority" : "NEUTRAL",
          "renditionMap" : { },
          "type" : "component"
        } ],
        "id" : "acbc57e5-3c31-479d-8578-27bfcc5fcaff",
        "regionLabel" : "Column 1",
        "regionName" : "1",
        "renditionMap" : { },
        "type" : "region"
      }, {
        "components" : [ {
          "componentAttributes" : {
            "richTextValue" : "<div class=\"callUs\">\n    <img src=\"https://cfainstitute.force.com/societyhub/resource/1582220683000/SelfService/images/phone.png\">\n    <h3>Call Us</h3>\n    <p>We are based in Charlottesville, VA, and offer 24-hour telephone support Sunday 5:00 p.m. to Friday 12:00 p.m., Eastern Time.</p>\n    <h4>United States</h4>\n    <p>+1 (434) 951-5499</p>\n    <p><a href=\"https://www.cfainstitute.org/en/utility/phone-numbers\">Find a toll-free number ></a></p>\n</div>"
          },
          "componentName" : "forceCommunity:htmlBlock",
          "id" : "e7e4d0c9-f807-42bd-9cd1-146dc12751b8",
          "renderPriority" : "NEUTRAL",
          "renditionMap" : { },
          "type" : "component"
        } ],
        "id" : "8fccd8e4-30e5-416f-aaa7-6bf6c74e8892",
        "regionLabel" : "Column 2",
        "regionName" : "64088",
        "renditionMap" : { },
        "type" : "region"
      }, {
        "components" : [ {
          "componentAttributes" : {
            "richTextValue" : "<div class=\"findUs\">\n    <img src=\"https://cfainstitute.force.com/societyhub/resource/1582220683000/SelfService/images/find.png\">\n    <h3>Find Us</h3>\n    <p><a href=\"https://www.cfainstitute.org/en/utility/office-locations\">View specific office locations and contact information ></a></p>\n</div>"
          },
          "componentName" : "forceCommunity:htmlBlock",
          "id" : "34ddac55-65ee-4785-87b5-f5cd73f3c672",
          "renderPriority" : "NEUTRAL",
          "renditionMap" : { },
          "type" : "component"
        } ],
        "id" : "7138e530-5b1e-495d-9656-6f43f22a5486",
        "regionLabel" : "Column 3",
        "regionName" : "3445b",
        "renditionMap" : { },
        "type" : "region"
      } ],
      "renderPriority" : "NEUTRAL",
      "renditionMap" : { },
      "type" : "component"
    } ],
    "id" : "799bd470-604b-4014-9a59-b581b666b475",
    "regionName" : "content",
    "type" : "region"
  }, {
    "components" : [ {
      "componentAttributes" : {
        "customHeadTags" : "<meta name=”description” content=\"Self Service for CFA Institute. Learn about certificates and programs for a career in investment management.\">\n<meta name=\"twitter:card\" content=\"CFA Institute Self Service\" />\n<meta name=\"twitter:site\" content=\"@cfainstitute\" />\n<meta name=\"twitter:creator\" content=\"@cfainstitute\" />\n<meta property=\"twitter:title\" content=\"CFA Institute Self Service\">\n<meta property=\"twitter:description\" content=\"Self Service for CFA Institute. Learn about certificates and programs for a career in investment management.\">\n<meta property=\"og:title\" content=\"CFA Institute Self Service\" />\n<meta property=\"og:description\" content=\"Self Service for CFA Institute. Learn about certificates and programs for a career in investment management.\" />\n<meta name=\"twitter:image\" content=\"https://devint-cfainstitute.cs24.force.com/selfservice/file-asset/cfalogo?v=1\">\n<meta property=\"og:image\" content=\"https://devint-cfainstitute.cs24.force.com/selfservice/file-asset/cfalogo?v=1\">\n<meta property=\"og:site_name\" content=\"CFA Institute Self Service\">",
        "description" : "Self Service for CFA Institute. Learn about certificates and programs for a career in investment management.",
        "title" : "Home"
      },
      "componentName" : "forceCommunity:seoAssistant",
      "id" : "d5c9c51b-4077-4f08-b6e1-4aa1b2f36654",
      "renditionMap" : { },
      "type" : "component"
    } ],
    "id" : "b35a78e8-4add-44e8-9298-bf6d4ac452b8",
    "regionName" : "sfdcHiddenRegion",
    "type" : "region"
  } ],
  "themeLayoutType" : "Home",
  "type" : "view",
  "viewType" : "home"
}