{
  "appPageId" : "be9ec60d-10ba-4af0-893f-c6bbc0e2d3ef",
  "componentName" : "siteforce:sldsOneColLayout",
  "id" : "8e0b6c81-6e5d-484b-9bbd-a61f17e30b78",
  "label" : "Dashboard Related List",
  "regions" : [ {
    "id" : "f527d770-c35e-4240-a552-94df2ab082a0",
    "regionName" : "header",
    "type" : "region"
  }, {
    "components" : [ {
      "componentAttributes" : {
        "customTitle" : "",
        "parentRecordId" : "{!recordId}",
        "relatedListName" : "{!relationshipApiName}",
        "showBreadCrumbs" : true,
        "showCustomTitle" : false,
        "showManualRefreshButton" : true,
        "showRowNumbers" : true
      },
      "componentName" : "forceCommunity:relatedList",
      "id" : "5fa589f8-8ae9-4627-816e-229db0c99c5d",
      "renderPriority" : "NEUTRAL",
      "renditionMap" : { },
      "type" : "component"
    } ],
    "id" : "ca7521c0-3075-448c-b9b8-935e3b225993",
    "regionName" : "content",
    "type" : "region"
  }, {
    "id" : "e4c05203-c36e-4c67-ba9f-83a1e763e947",
    "regionName" : "footer",
    "type" : "region"
  } ],
  "themeLayoutType" : "Inner",
  "type" : "view",
  "viewType" : "relatedlist-01Z"
}