{
  "appPageId" : "b28b82d8-ebbd-4ad1-9e0a-67ef2907c943",
  "componentName" : "siteforce:sldsOneColLayout",
  "id" : "e542da44-609d-4a7e-b99e-370f62dd4de4",
  "label" : "Feed Detail",
  "regions" : [ {
    "id" : "f785ea21-c162-40c1-8b12-ce33d7185afb",
    "regionName" : "header",
    "type" : "region"
  }, {
    "components" : [ {
      "componentAttributes" : {
        "id" : "{!recordId}"
      },
      "componentName" : "forceCommunity:feedItemDetail",
      "id" : "5c4c9d57-95e5-436b-86d8-51eeae231779",
      "renderPriority" : "NEUTRAL",
      "renditionMap" : { },
      "type" : "component"
    } ],
    "id" : "85f17a2c-2798-4c35-ac4a-1a2a72f51637",
    "regionName" : "content",
    "type" : "region"
  }, {
    "id" : "58b1647e-0aff-4eb1-a129-efbb68b8dbd1",
    "regionName" : "footer",
    "type" : "region"
  } ],
  "themeLayoutType" : "Inner",
  "type" : "view",
  "viewType" : "feeditem-generic"
}