{
  "appPageId" : "b28b82d8-ebbd-4ad1-9e0a-67ef2907c943",
  "componentName" : "siteforce:sldsOneColLayout",
  "id" : "e68d700f-56c3-4e7e-93f6-3ea966ca6cb2",
  "label" : "File Related List",
  "regions" : [ {
    "id" : "fba7b5c5-00ae-42fe-942a-69f3a42962a3",
    "regionName" : "header",
    "type" : "region"
  }, {
    "components" : [ {
      "componentAttributes" : {
        "customTitle" : "",
        "parentRecordId" : "{!recordId}",
        "relatedListName" : "{!relationshipApiName}",
        "showBreadCrumbs" : true,
        "showCustomTitle" : false,
        "showManualRefreshButton" : true,
        "showRowNumbers" : true
      },
      "componentName" : "forceCommunity:relatedList",
      "id" : "b33e0daa-37be-496e-85d6-97e769119d3a",
      "renderPriority" : "NEUTRAL",
      "renditionMap" : { },
      "type" : "component"
    } ],
    "id" : "669b636e-fff6-499d-8356-05017371f61b",
    "regionName" : "content",
    "type" : "region"
  }, {
    "id" : "db45c53d-b2a1-4e70-9c46-79ecf1521954",
    "regionName" : "footer",
    "type" : "region"
  } ],
  "themeLayoutType" : "Inner",
  "type" : "view",
  "viewType" : "relatedlist-069"
}