{
  "activeViewId" : "aa58e64d-6ffc-4d31-85be-1672ddcef828",
  "appPageId" : "48a8bf6c-7c92-4b70-af72-9627cd289bfa",
  "configurationTags" : [ ],
  "id" : "b564ffa6-e75e-4b74-9e4e-cfdaf99b28b9",
  "label" : "Case Detail",
  "routeType" : "detail-500",
  "type" : "route",
  "urlPrefix" : "case"
}