{
  "activeViewId" : "c8398809-b60b-4f9c-a5be-4b5df03e7f60",
  "appPageId" : "48a8bf6c-7c92-4b70-af72-9627cd289bfa",
  "configurationTags" : [ ],
  "id" : "d3426d8d-b077-4c38-a9f7-a7765e24a01d",
  "label" : "Error",
  "pageAccess" : "UseParent",
  "routeType" : "error",
  "type" : "route",
  "urlPrefix" : "error"
}