{
  "activeViewId" : "0f7ec718-3939-438e-abad-d263d472216e",
  "appPageId" : "48a8bf6c-7c92-4b70-af72-9627cd289bfa",
  "configurationTags" : [ ],
  "id" : "ab66849a-be72-4088-b925-5280735340cb",
  "label" : "Group Detail",
  "routeType" : "detail-0F9",
  "type" : "route",
  "urlPrefix" : "group"
}