{
  "activeViewId" : "b76e2585-5212-46ff-b919-ccc948b70269",
  "appPageId" : "48a8bf6c-7c92-4b70-af72-9627cd289bfa",
  "configurationTags" : [ ],
  "id" : "c6691a49-62d2-4656-a4ce-0d82459b6ad1",
  "label" : "Messages",
  "routeType" : "messages",
  "type" : "route",
  "urlPrefix" : "messages"
}