{
  "activeViewId" : "39f8cf7b-007c-42d0-b093-3a97ed090aac",
  "appPageId" : "48a8bf6c-7c92-4b70-af72-9627cd289bfa",
  "configurationTags" : [ ],
  "id" : "f054ef7c-4a05-4adb-a7c1-4efc0a4f9ea9",
  "label" : "Topic Catalog",
  "pageAccess" : "UseParent",
  "routeType" : "topic-catalog",
  "type" : "route",
  "urlPrefix" : "topiccatalog"
}