{
  "appPageId" : "c4703a2e-936f-4774-b03d-fb11ecfb7597",
  "componentName" : "siteforce:sldsOneColLayout",
  "id" : "33621452-1183-41f6-9ce4-b1e7a41b8582",
  "label" : "Dashboard Related List",
  "regions" : [ {
    "id" : "6f2710fb-07f2-4c0f-820f-430678b8fe8a",
    "regionName" : "header",
    "type" : "region"
  }, {
    "components" : [ {
      "componentAttributes" : {
        "parentRecordId" : "{!parentRecordId}",
        "relatedListName" : "{!relatedListName}"
      },
      "componentName" : "forceCommunity:relatedList",
      "id" : "7ed35318-3136-43cd-b56a-cbd4687e4a9c",
      "renderPriority" : "NEUTRAL",
      "renditionMap" : { },
      "type" : "component"
    } ],
    "id" : "1eef741b-fbcf-4bcf-a987-f56e0b32f5f4",
    "regionName" : "content",
    "type" : "region"
  }, {
    "id" : "1548b02b-4c4f-42ba-9f59-4a50c03391e1",
    "regionName" : "footer",
    "type" : "region"
  } ],
  "themeLayoutType" : "Inner",
  "type" : "view",
  "viewType" : "relatedlist-01Z"
}