{
  "appPageId" : "c4703a2e-936f-4774-b03d-fb11ecfb7597",
  "componentName" : "siteforce:sldsOneColLayout",
  "id" : "8a82be4f-a55f-45ec-975b-5d6188ae39ce",
  "label" : "Group Detail",
  "regions" : [ {
    "id" : "f9c4cffc-8e4a-429b-8ee4-f438376a3ec3",
    "regionName" : "header",
    "type" : "region"
  }, {
    "components" : [ {
      "componentAttributes" : {
        "detailsTabLabel" : "Details",
        "engagementManagersOnly" : false,
        "engagementTabLabel" : "Engagement",
        "feedTabLabel" : "Feed",
        "recordId" : "{!recordId}",
        "relatedTabLabel" : "Related"
      },
      "componentName" : "forceCommunity:groupRecordHomeTabs",
      "id" : "bcccff66-47e8-41c8-a33b-15d1f1fcd2fa",
      "renderPriority" : "NEUTRAL",
      "renditionMap" : { },
      "type" : "component"
    } ],
    "id" : "8a857818-db92-4920-a496-e062a9bc48b9",
    "regionName" : "content",
    "type" : "region"
  }, {
    "id" : "a3caa38c-7c50-425e-9bfe-242c2e69f287",
    "regionName" : "footer",
    "type" : "region"
  }, {
    "components" : [ {
      "componentAttributes" : {
        "customHeadTags" : "",
        "description" : "",
        "title" : "{!Record._Object}: {!Record._Title}"
      },
      "componentName" : "forceCommunity:seoAssistant",
      "id" : "daeb7155-5a3e-4bfe-a0f3-b0b0538cb88d",
      "renditionMap" : { },
      "type" : "component"
    } ],
    "id" : "dd6bc650-af81-422b-a7b6-26d4b0623077",
    "regionName" : "sfdcHiddenRegion",
    "type" : "region"
  } ],
  "themeLayoutType" : "Inner",
  "type" : "view",
  "viewType" : "detail-0F9"
}