{
  "appPageId" : "c4703a2e-936f-4774-b03d-fb11ecfb7597",
  "componentName" : "siteforce:sldsOneColLayout",
  "id" : "50df54cd-3b58-4ecf-a4bb-07e0c7aa8660",
  "label" : "Record List",
  "regions" : [ {
    "id" : "cf051195-a685-4dbe-91a0-dcba72f626f4",
    "regionName" : "header",
    "type" : "region"
  }, {
    "components" : [ {
      "componentAttributes" : {
        "filterName" : "{!filterId}",
        "layout" : "FULL",
        "pageSize" : 25,
        "scope" : "{!objectName}",
        "showDisplay" : "showall"
      },
      "componentName" : "forceCommunity:objectHome",
      "id" : "19f0fdd7-4174-47bf-87da-4d17b9ed43ef",
      "renderPriority" : "NEUTRAL",
      "renditionMap" : { },
      "type" : "component"
    } ],
    "id" : "e3c19147-4937-4731-ada0-e41b115b77bd",
    "regionName" : "content",
    "type" : "region"
  }, {
    "components" : [ {
      "componentAttributes" : {
        "richTextValue" : "<div id=\"imageHeader\">\n<div class=\".slds-text-align_left textlink back-link\">\n<a href=\"https://cfainstitute.force.com/CFAVolunteer/s/\" style=\"color:white;font-weight:bold;font-family:'CFA Breuer Text' !important;\">&lt;\n    <b>Back To Home</b></a></div></div>"
      },
      "componentName" : "forceCommunity:htmlBlock",
      "id" : "d763c247-25ee-4e7a-abe8-60c835002639",
      "renderPriority" : "NEUTRAL",
      "renditionMap" : { },
      "type" : "component"
    } ],
    "id" : "ed495a7f-30f2-4467-8ec5-86653fb5e2d5",
    "regionName" : "footer",
    "type" : "region"
  } ],
  "themeLayoutType" : "Inner",
  "type" : "view",
  "viewType" : "list"
}