{
  "appPageId" : "c4703a2e-936f-4774-b03d-fb11ecfb7597",
  "componentName" : "siteforce:sldsOneColLayout",
  "id" : "f6350f12-3349-4764-ab9c-85f81b5c5e63",
  "label" : "save-application-success",
  "regions" : [ {
    "id" : "bd593b73-f64a-42b3-892b-ee52f17ee01f",
    "regionName" : "header",
    "type" : "region"
  }, {
    "components" : [ {
      "componentAttributes" : { },
      "componentName" : "c:VM_Save_Application_success",
      "id" : "1f6420e6-2181-4802-987a-bea475a48d1d",
      "renderPriority" : "NEUTRAL",
      "renditionMap" : { },
      "type" : "component"
    } ],
    "id" : "972495e5-0680-4646-9d58-b2d9f23bbb89",
    "regionName" : "content",
    "type" : "region"
  }, {
    "id" : "06dfdb39-27e0-488f-bb8e-3546e8477e94",
    "regionName" : "footer",
    "type" : "region"
  }, {
    "components" : [ {
      "componentAttributes" : {
        "customHeadTags" : "",
        "description" : "",
        "title" : "save-application-success"
      },
      "componentName" : "forceCommunity:seoAssistant",
      "id" : "57953fdc-6206-4354-8028-526745eac3e6",
      "renditionMap" : { },
      "type" : "component"
    } ],
    "id" : "d9a38ec2-33a5-4253-b9c5-733d79b8ff00",
    "regionName" : "sfdcHiddenRegion",
    "type" : "region"
  } ],
  "themeLayoutType" : "Inner",
  "type" : "view",
  "viewType" : "custom-save-application-success"
}