{
  "appPageId" : "c4703a2e-936f-4774-b03d-fb11ecfb7597",
  "componentName" : "siteforce:sldsOneColLayout",
  "id" : "89a32917-2fd9-44a8-aa69-df4ae6e6196c",
  "label" : "Service Not Available",
  "regions" : [ {
    "components" : [ {
      "componentAttributes" : {
        "richTextValue" : "<div style='display: flex; align-items: center; flex-direction: column; margin: 60px 25px 40px 25px;'><div style='background: url(/sfsites/assets/Images/serviceNotAvailable/serviceNotAvailable.svg) center no-repeat; background-size: contain; height: 331px; width: 100%; max-width: 538px;'></div></div><div style='margin: 0 25px; text-align: center;'><p><b style='font-size: 3.4em'>Looks like the site is temporarily unavailable</b></p><br/><p><span style='font-size: 2em;'>Please try again in a bit.</span></p></div>"
      },
      "componentName" : "forceCommunity:htmlBlock",
      "id" : "d396dc40-f3be-4c11-acce-697663cee372",
      "renderPriority" : "NEUTRAL",
      "renditionMap" : { },
      "type" : "component"
    } ],
    "id" : "f4c6a1a4-3fec-4fc9-aa12-73b03e8f8872",
    "regionName" : "content",
    "type" : "region"
  } ],
  "themeLayoutType" : "ServiceNotAvailable",
  "type" : "view",
  "viewType" : "service-not-available"
}