{
  "appPageId" : "c4703a2e-936f-4774-b03d-fb11ecfb7597",
  "componentName" : "siteforce:sldsOneColLayout",
  "id" : "9dd3696e-64cc-4b85-b837-457e53eb2b11",
  "label" : "Top Articles",
  "regions" : [ {
    "id" : "7fb373ca-ecaa-4d5a-94ab-1530d61868ff",
    "regionName" : "header",
    "type" : "region"
  }, {
    "components" : [ {
      "componentAttributes" : {
        "numberOfArticles" : 5,
        "showTitle" : true,
        "title" : "Top Articles",
        "topicList" : [ ]
      },
      "componentName" : "forceCommunity:topArticleList",
      "id" : "e28fc180-fb39-4d8b-aa2a-60f1e808c503",
      "renderPriority" : "NEUTRAL",
      "renditionMap" : { },
      "type" : "component"
    } ],
    "id" : "11eec3ce-d921-4148-b450-15ffd3817f8f",
    "regionName" : "content",
    "type" : "region"
  }, {
    "id" : "c1957a13-39a1-4815-b6d7-030b6bcbd9cc",
    "regionName" : "footer",
    "type" : "region"
  }, {
    "components" : [ {
      "componentAttributes" : {
        "customHeadTags" : "",
        "description" : "",
        "title" : "Top Articles"
      },
      "componentName" : "forceCommunity:seoAssistant",
      "id" : "8f62364d-b323-4116-95b1-931f51f62c65",
      "renditionMap" : { },
      "type" : "component"
    } ],
    "id" : "7bc9fd91-1a9d-405a-81a5-1723f235a49e",
    "regionName" : "sfdcHiddenRegion",
    "type" : "region"
  } ],
  "themeLayoutType" : "Inner",
  "type" : "view",
  "viewType" : "top-articles"
}