{
  "appPageId" : "c4703a2e-936f-4774-b03d-fb11ecfb7597",
  "componentName" : "siteforce:sldsTwoCol84SidebarFeaturedLayout",
  "id" : "c3d33bc9-7a07-4acb-93be-dad4bfe05f4b",
  "label" : "Topic Detail",
  "regions" : [ {
    "components" : [ {
      "componentAttributes" : {
        "bannerText" : "",
        "bannerTextWithKnowledge" : "Explore other <a href=\"javascript:void(0)\" class=\"headlineArticles\">articles</a> and <a href=\"javascript:void(0)\" class=\"headlineDiscussions\">discussions</a> on this topic.",
        "bannerTextWithoutKnowledge" : "Explore other <a href=\"javascript:void(0)\" class=\"headlineDiscussions\">discussions</a> on this topic.",
        "pageType" : "topic",
        "showSubTopics" : true,
        "title" : "Welcome!",
        "uniqueNameOrId" : ""
      },
      "componentName" : "forceCommunity:headline",
      "id" : "d1f5624f-d3e7-4192-8c5a-34bf9d790435",
      "renderPriority" : "NEUTRAL",
      "renditionMap" : { },
      "type" : "component"
    } ],
    "id" : "0bc6624c-400e-4141-86c1-f740da3161c7",
    "regionName" : "header",
    "type" : "region"
  }, {
    "components" : [ {
      "componentAttributes" : {
        "title" : "Description",
        "topicId" : "{!topicId}"
      },
      "componentName" : "forceCommunity:topicDescription",
      "id" : "fd50ce63-d40d-4db1-b7f5-2aa33502ea0f",
      "renderPriority" : "NEUTRAL",
      "renditionMap" : { },
      "type" : "component"
    }, {
      "componentAttributes" : {
        "showArticles" : true,
        "showFollowers" : true,
        "showPosts" : true,
        "showTalkingAbout" : true,
        "topicId" : "{!topicId}"
      },
      "componentName" : "forceCommunity:topicMetrics",
      "id" : "bd2844cd-3647-4bf3-b294-1e55e7ce9317",
      "renderPriority" : "NEUTRAL",
      "renditionMap" : { },
      "type" : "component"
    }, {
      "componentAttributes" : {
        "label" : "Ask a Question",
        "showDetails" : false,
        "showTopics" : true
      },
      "componentName" : "forceCommunity:askCommunity",
      "id" : "5d6b834a-f1b9-4be0-ae47-8d9953c1b5f4",
      "renderPriority" : "NEUTRAL",
      "renditionMap" : { },
      "type" : "component"
    }, {
      "componentAttributes" : {
        "recordId" : "{!topicId}",
        "showNotificationMenu" : true
      },
      "componentName" : "forceCommunity:follow",
      "id" : "96a7527c-d117-40d7-a915-fe1e11ea15e6",
      "renderPriority" : "NEUTRAL",
      "renditionMap" : { },
      "type" : "component"
    } ],
    "id" : "ddd6104f-1315-4e9e-94ec-4aad45397c7f",
    "regionName" : "featured",
    "type" : "region"
  }, {
    "components" : [ {
      "componentAttributes" : {
        "activeTab" : "{!selectedTab}",
        "articleListPageSize" : 10,
        "articleTabLabel" : "Articles",
        "discussionTabLabel" : "Discussions",
        "searchTerm" : "{!searchString}",
        "showArticleTab" : true,
        "showCompactFeedInDiscussion" : true,
        "topicId" : "{!topicId}"
      },
      "componentName" : "forceCommunity:resultsList",
      "id" : "3c670900-0db9-4bc7-87e3-37d014869c1f",
      "renderPriority" : "NEUTRAL",
      "renditionMap" : { },
      "type" : "component"
    } ],
    "id" : "b3890620-55c2-4df3-85e6-e2b070043507",
    "regionName" : "content",
    "type" : "region"
  }, {
    "components" : [ {
      "componentAttributes" : {
        "showTopicsMetric" : true,
        "title" : "Related Topics",
        "topicId" : "{!topicId}"
      },
      "componentName" : "forceCommunity:relatedTopics",
      "id" : "e1b8a747-4646-4bfc-9bae-c89163e1927d",
      "renderPriority" : "NEUTRAL",
      "renditionMap" : { },
      "type" : "component"
    }, {
      "componentAttributes" : {
        "title" : "Knowledgeable People",
        "topicId" : "{!topicId}"
      },
      "componentName" : "forceCommunity:knowledgeablePeople",
      "id" : "a2def2d9-8a25-47a8-8137-bde50820e088",
      "renderPriority" : "NEUTRAL",
      "renditionMap" : { },
      "type" : "component"
    } ],
    "id" : "b4844534-e32e-4590-8d21-92f7b92c377c",
    "regionName" : "sidebar",
    "type" : "region"
  }, {
    "components" : [ {
      "componentAttributes" : {
        "askCommunityLabel" : "Ask A Question",
        "contactSupportLabel" : "Contact Support",
        "headerLabel" : "Don't see what you're looking for?",
        "showDetails" : false,
        "showTopics" : true
      },
      "componentName" : "siteforce:napiliFooter",
      "id" : "400b9a2d-cb73-4ad5-bf5a-e936c5b68237",
      "renderPriority" : "NEUTRAL",
      "renditionMap" : { },
      "type" : "component"
    } ],
    "id" : "7356e85a-020f-43f4-8759-74e1969ce131",
    "regionName" : "footer",
    "type" : "region"
  }, {
    "components" : [ {
      "componentAttributes" : {
        "customHeadTags" : "",
        "description" : "{!Record.Description}",
        "title" : "{!Record._Title}"
      },
      "componentName" : "forceCommunity:seoAssistant",
      "id" : "45beac1a-d849-4bfc-be0d-5a2cc3ee73e4",
      "renditionMap" : { },
      "type" : "component"
    } ],
    "id" : "469670f2-6830-403f-be2c-eb58eb6ca23c",
    "regionName" : "sfdcHiddenRegion",
    "type" : "region"
  } ],
  "themeLayoutType" : "Inner",
  "type" : "view",
  "viewType" : "topic"
}