{
  "appPageId" : "c4703a2e-936f-4774-b03d-fb11ecfb7597",
  "componentName" : "siteforce:sldsOneColLayout",
  "id" : "2a4cb181-0cc7-4471-a7ff-67e02d4f7afe",
  "label" : "User Related List",
  "regions" : [ {
    "id" : "747a7af9-12fd-4695-b474-7f68cdb0c256",
    "regionName" : "header",
    "type" : "region"
  }, {
    "components" : [ {
      "componentAttributes" : {
        "parentRecordId" : "{!parentRecordId}",
        "relatedListName" : "{!relatedListName}"
      },
      "componentName" : "forceCommunity:relatedList",
      "id" : "fa2ec970-0b73-46d5-89f1-72f80cec8e14",
      "renderPriority" : "NEUTRAL",
      "renditionMap" : { },
      "type" : "component"
    } ],
    "id" : "aa69e268-a164-47fe-9c0f-c43b3683ed87",
    "regionName" : "content",
    "type" : "region"
  }, {
    "id" : "e06ab98f-4189-413c-b6dc-ab2d095ff730",
    "regionName" : "footer",
    "type" : "region"
  } ],
  "themeLayoutType" : "Inner",
  "type" : "view",
  "viewType" : "relatedlist-005"
}