{
  "appPageId" : "c4703a2e-936f-4774-b03d-fb11ecfb7597",
  "componentName" : "siteforce:sldsOneColLayout",
  "id" : "b34069f2-a907-4336-9c22-716102d04394",
  "label" : "VM_updateprofile page",
  "regions" : [ {
    "id" : "7caac3bc-16d0-4026-9543-95cffbb1b1ae",
    "regionName" : "header",
    "type" : "region"
  }, {
    "components" : [ {
      "componentAttributes" : { },
      "componentName" : "c:VM_VolunteerProfile",
      "id" : "563c699f-1526-48b3-86e8-472308046760",
      "renderPriority" : "NEUTRAL",
      "renditionMap" : { },
      "type" : "component"
    } ],
    "id" : "64ea01c4-4703-41c1-99f4-40e66975e65a",
    "regionName" : "content",
    "type" : "region"
  }, {
    "id" : "2ed9bf3a-7b4f-431c-9f12-bff9c72f89f3",
    "regionName" : "footer",
    "type" : "region"
  }, {
    "components" : [ {
      "componentAttributes" : {
        "customHeadTags" : "",
        "description" : "",
        "title" : "VM_updateprofile page"
      },
      "componentName" : "forceCommunity:seoAssistant",
      "id" : "3f590f22-dfd9-4cb2-8b8b-9d2510c9665b",
      "renditionMap" : { },
      "type" : "component"
    } ],
    "id" : "21b37ee7-262e-46f2-8f3b-6fbf93b973f8",
    "regionName" : "sfdcHiddenRegion",
    "type" : "region"
  } ],
  "themeLayoutType" : "Inner",
  "type" : "view",
  "viewType" : "custom-vm-updateprofile-page"
}