{
  "forgotPasswordRouteId" : "07b2e502-d1b5-41b0-b827-40d6255c63f1",
  "isAvailableToGuests" : false,
  "isFilteredComponentsView" : false,
  "isProgressiveRenderingEnabled" : false,
  "loginAppPageId" : "7658b2bb-a1c4-48ea-a112-4dd5bc438eb7",
  "mainAppPageId" : "92034fee-2a5a-4602-b58b-7f635d198d78",
  "preferredDomain" : "none",
  "selfRegistrationRouteId" : "7aa425a1-48f2-41a1-9da8-1e2d4830faa0",
  "type" : "site"
}