{
  "cmsSettings" : { },
  "currentThemeId" : "08ee5d02-ef9b-476b-96c3-2770527d9e63",
  "headMarkup" : null,
  "id" : "92034fee-2a5a-4602-b58b-7f635d198d78",
  "isRelaxedCSPLevel" : false,
  "label" : "main",
  "templateName" : "PRM Community Template",
  "type" : "appPage"
}