{
  "appPageId" : "92034fee-2a5a-4602-b58b-7f635d198d78",
  "componentName" : "siteforce:sldsOneColLayout",
  "id" : "8aa33c0d-99d7-4aa3-b583-0cdd36a63c31",
  "label" : "MDF and Coop",
  "regions" : [ {
    "id" : "2922408b-c0ea-4d38-97b0-8e24b4a92ce0",
    "regionName" : "header",
    "type" : "region"
  }, {
    "components" : [ {
      "componentAttributes" : {
        "richTextValue" : "             <p>                 <span style=\"font-size: 20px;\">Request and Manage your Market Developments Funds.</span>             </p>        "
      },
      "componentName" : "forceCommunity:richTextInline",
      "id" : "133cb458-66c4-4bd3-9864-1089decb5946",
      "renderPriority" : "NEUTRAL",
      "renditionMap" : { },
      "type" : "component"
    }, {
      "componentAttributes" : {
        "tabsetConfig" : {
          "UUID" : "90139e69-ee98-4347-8d0f-ba63d39eb8bd",
          "activeTab" : "tab1",
          "tabs" : [ {
            "UUID" : "3a1dc3f4-2c18-439f-a096-69c6d40a347f",
            "allowGuestUser" : false,
            "locked" : false,
            "seedComponents" : [ {
              "attributes" : {
                "filterName" : "Recent",
                "scope" : "PartnerFundAllocation"
              },
              "fqn" : "forceCommunity:objectHome"
            } ],
            "tabKey" : "tab1",
            "tabName" : "Fund Allocations"
          }, {
            "UUID" : "d3b6c65a-6c04-4c15-b1b3-7287fe88d8f8",
            "allowGuestUser" : false,
            "locked" : false,
            "seedComponents" : [ {
              "attributes" : {
                "filterName" : "Recent",
                "scope" : "PartnerFundRequest"
              },
              "fqn" : "forceCommunity:objectHome"
            } ],
            "tabKey" : "tab2",
            "tabName" : "Fund Requests"
          }, {
            "UUID" : "837cb5aa-4eca-43c7-80b8-ec884bd40e5b",
            "allowGuestUser" : false,
            "locked" : false,
            "seedComponents" : [ {
              "attributes" : {
                "filterName" : "Recent",
                "scope" : "PartnerFundClaim"
              },
              "fqn" : "forceCommunity:objectHome"
            } ],
            "tabKey" : "tab3",
            "tabName" : "Fund Claims"
          } ],
          "useOverflowMenu" : false
        }
      },
      "componentName" : "forceCommunity:tabset",
      "id" : "90139e69-ee98-4347-8d0f-ba63d39eb8bd",
      "regions" : [ {
        "components" : [ {
          "componentAttributes" : {
            "enableInlineEdit" : true,
            "filterName" : "Recent",
            "layout" : "FULL",
            "pageSize" : 25,
            "scope" : "PartnerFundAllocation",
            "showActionBar" : true,
            "showChartsPanel" : true,
            "showDisplay" : "showall",
            "showFilterPanel" : true,
            "showImageIcon" : true,
            "showManualRefreshButton" : true,
            "showObjectName" : true,
            "showPinnedList" : true,
            "showSearchBar" : true
          },
          "componentName" : "forceCommunity:objectHome",
          "id" : "5ee4b582-2af7-44e0-84a5-fe7e197a63df",
          "renditionMap" : { },
          "type" : "component"
        } ],
        "id" : "3a1dc3f4-2c18-439f-a096-69c6d40a347f",
        "regionLabel" : "Fund Allocations",
        "regionName" : "tab1",
        "renditionMap" : { },
        "type" : "region"
      }, {
        "components" : [ {
          "componentAttributes" : {
            "enableInlineEdit" : true,
            "filterName" : "Recent",
            "layout" : "FULL",
            "pageSize" : 25,
            "scope" : "PartnerFundRequest",
            "showActionBar" : true,
            "showChartsPanel" : true,
            "showDisplay" : "showall",
            "showFilterPanel" : true,
            "showImageIcon" : true,
            "showManualRefreshButton" : true,
            "showObjectName" : true,
            "showPinnedList" : true,
            "showSearchBar" : true
          },
          "componentName" : "forceCommunity:objectHome",
          "id" : "4b72d0bd-a665-4abe-a90e-4ae032d0fef8",
          "renditionMap" : { },
          "type" : "component"
        } ],
        "id" : "d3b6c65a-6c04-4c15-b1b3-7287fe88d8f8",
        "regionLabel" : "Fund Requests",
        "regionName" : "tab2",
        "renditionMap" : { },
        "type" : "region"
      }, {
        "components" : [ {
          "componentAttributes" : {
            "enableInlineEdit" : true,
            "filterName" : "Recent",
            "layout" : "FULL",
            "pageSize" : 25,
            "scope" : "PartnerFundClaim",
            "showActionBar" : true,
            "showChartsPanel" : true,
            "showDisplay" : "showall",
            "showFilterPanel" : true,
            "showImageIcon" : true,
            "showManualRefreshButton" : true,
            "showObjectName" : true,
            "showPinnedList" : true,
            "showSearchBar" : true
          },
          "componentName" : "forceCommunity:objectHome",
          "id" : "ef48367e-a1c2-4ce9-b112-d56651522b1c",
          "renditionMap" : { },
          "type" : "component"
        } ],
        "id" : "837cb5aa-4eca-43c7-80b8-ec884bd40e5b",
        "regionLabel" : "Fund Claims",
        "regionName" : "tab3",
        "renditionMap" : { },
        "type" : "region"
      } ],
      "renderPriority" : "NEUTRAL",
      "renditionMap" : { },
      "type" : "component"
    } ],
    "id" : "ca297eaa-fae3-4782-89e7-73baa82a6fca",
    "regionName" : "content",
    "type" : "region"
  }, {
    "id" : "3bc2e102-a2a4-4a96-be30-427893621150",
    "regionName" : "footer",
    "type" : "region"
  } ],
  "themeLayoutType" : "Inner",
  "type" : "view",
  "viewType" : "mdf"
}