{
  "appPageId" : "92034fee-2a5a-4602-b58b-7f635d198d78",
  "componentName" : "siteforce:sldsOneColLayout",
  "id" : "64a044a2-a149-46e8-a9b5-89bbfccafb44",
  "label" : "Report Builder",
  "regions" : [ {
    "id" : "8c57e6e1-18b3-4dcd-a27d-b0442b68fc37",
    "regionName" : "header",
    "type" : "region"
  }, {
    "components" : [ {
      "componentAttributes" : {
        "recordId" : "{!recordId}"
      },
      "componentName" : "forceCommunity:reportBuilder",
      "id" : "d990e34e-9089-412d-885c-3ebb0cbc532e",
      "renderPriority" : "NEUTRAL",
      "renditionMap" : { },
      "type" : "component"
    } ],
    "id" : "4edccd0d-0e69-45da-afbc-bf925cd14f9f",
    "regionName" : "content",
    "type" : "region"
  }, {
    "id" : "0cde3ea0-44d8-49cf-8635-7038f40bce45",
    "regionName" : "footer",
    "type" : "region"
  } ],
  "themeLayoutType" : "Inner",
  "type" : "view",
  "viewType" : "createreport"
}