{
  "appPageId" : "92034fee-2a5a-4602-b58b-7f635d198d78",
  "componentName" : "siteforce:sldsOneColLayout",
  "id" : "e6ec7fdf-f861-4508-8732-c5a541ebb876",
  "label" : "Topic Catalog",
  "regions" : [ {
    "components" : [ {
      "componentAttributes" : {
        "bannerText" : "",
        "bannerTextWithKnowledge" : "Explore other <a href=\"javascript:void(0)\" class=\"headlineArticles\">articles</a> and <a href=\"javascript:void(0)\" class=\"headlineDiscussions\">discussions</a> on this topic.",
        "bannerTextWithoutKnowledge" : "Explore other <a href=\"javascript:void(0)\" class=\"headlineDiscussions\">discussions</a> on this topic.",
        "pageType" : "",
        "showSubTopics" : true,
        "title" : "Topics",
        "uniqueNameOrId" : ""
      },
      "componentName" : "forceCommunity:headline",
      "id" : "74094b35-85c7-4caf-905b-78f865f302d3",
      "renderPriority" : "NEUTRAL",
      "renditionMap" : { },
      "type" : "component"
    } ],
    "id" : "945f3f4b-fdf9-48d9-9d30-946e8eb72872",
    "regionName" : "header",
    "type" : "region"
  }, {
    "components" : [ {
      "componentAttributes" : { },
      "componentName" : "forceCommunity:topicCatalog",
      "id" : "1e80e5ab-7387-41f8-b04b-044c79efb0ae",
      "renderPriority" : "NEUTRAL",
      "renditionMap" : { },
      "type" : "component"
    } ],
    "id" : "5eee5d3a-7cc5-40ef-9528-5f9d2ad77bdc",
    "regionName" : "content",
    "type" : "region"
  }, {
    "id" : "cc467f3b-11a1-41d8-ab91-d92b46094e84",
    "regionName" : "footer",
    "type" : "region"
  }, {
    "components" : [ {
      "componentAttributes" : {
        "customHeadTags" : "",
        "description" : "",
        "title" : "Topic Catalog"
      },
      "componentName" : "forceCommunity:seoAssistant",
      "id" : "8abc11d4-6fda-4d53-beaf-9c0743db88a1",
      "renditionMap" : { },
      "type" : "component"
    } ],
    "id" : "de970c11-2e27-43c6-a523-db8314d4f7a1",
    "regionName" : "sfdcHiddenRegion",
    "type" : "region"
  } ],
  "themeLayoutType" : "Inner",
  "type" : "view",
  "viewType" : "topic-catalog"
}