{
  "activeViewId" : "6692a764-6795-43cb-bf2e-fffc076b2607",
  "appPageId" : "be9ec60d-10ba-4af0-893f-c6bbc0e2d3ef",
  "configurationTags" : [ ],
  "id" : "fa06eb37-f86d-4b6d-be5c-f88df9a90df2",
  "label" : "Case Related List",
  "routeType" : "relatedlist-500",
  "type" : "route",
  "urlPrefix" : "case"
}