{
  "activeViewId" : "b5a3d8ad-8183-475a-a03c-9b793f245073",
  "appPageId" : "be9ec60d-10ba-4af0-893f-c6bbc0e2d3ef",
  "configurationTags" : [ ],
  "id" : "a1eda82b-48b6-414f-9f11-bc3a0dd03c3c",
  "label" : "File Detail",
  "routeType" : "detail-069",
  "type" : "route",
  "urlPrefix" : "contentdocument"
}