{
  "activeViewId" : "2186d638-8eed-4215-b04d-a39fd0f542ca",
  "appPageId" : "be9ec60d-10ba-4af0-893f-c6bbc0e2d3ef",
  "configurationTags" : [ ],
  "id" : "d7b86ed5-7764-4ede-8d59-0ee484e0dea6",
  "label" : "Topic Detail",
  "routeType" : "topic",
  "type" : "route",
  "urlPrefix" : "topic"
}