{
  "activeViewId" : "e9a3a164-e64f-4113-a727-56365bb5fbd8",
  "appPageId" : "c4703a2e-936f-4774-b03d-fb11ecfb7597",
  "configurationTags" : [ ],
  "id" : "adfd5753-7a8b-4342-a869-9b61a86f4145",
  "label" : "Contact Support",
  "pageAccess" : "UseParent",
  "routeType" : "contactsupport",
  "type" : "route",
  "urlPrefix" : "contactsupport"
}