{
  "activeViewId" : "7e1c558d-10c2-4ca8-965f-449bb6fd7b2b",
  "appPageId" : "c4703a2e-936f-4774-b03d-fb11ecfb7597",
  "configurationTags" : [ ],
  "id" : "9367208e-c07c-443b-bb00-1e4837a0b26a",
  "label" : "Dashboard List",
  "routeType" : "list-01Z",
  "type" : "route",
  "urlPrefix" : "dashboard"
}