{
  "activeViewId" : "890efa06-9563-4177-b4c9-b5e91e23196d",
  "appPageId" : "c4703a2e-936f-4774-b03d-fb11ecfb7597",
  "configurationTags" : [ ],
  "id" : "5decf0ac-4a48-4133-89e3-2343568384d9",
  "label" : "Messages",
  "routeType" : "messages",
  "type" : "route",
  "urlPrefix" : "messages"
}