{
  "activeViewId" : "65cf86d3-3ce3-4397-8c13-91f31f55c74a",
  "appPageId" : "c4703a2e-936f-4774-b03d-fb11ecfb7597",
  "configurationTags" : [ ],
  "id" : "82acaf3d-2415-407a-bd23-35c26ca47a20",
  "label" : "Role Detail",
  "objectApiName" : "Role__c",
  "routeType" : "detail-a2x",
  "type" : "route",
  "urlPrefix" : "role"
}