{
  "activeViewId" : "4b4c8d07-0dfc-4823-a6e0-52dae299f193",
  "appPageId" : "c4703a2e-936f-4774-b03d-fb11ecfb7597",
  "configurationTags" : [ ],
  "id" : "ab90f412-7fac-4778-aa61-452bea4f02b2",
  "label" : "User Profile",
  "routeType" : "detail-005",
  "type" : "route",
  "urlPrefix" : "profile"
}