{
  "activeViewId" : "b34069f2-a907-4336-9c22-716102d04394",
  "appPageId" : "c4703a2e-936f-4774-b03d-fb11ecfb7597",
  "configurationTags" : [ ],
  "id" : "c20d9f36-ff6d-4c9f-bcae-8dafa9e571d1",
  "label" : "VM_updateprofile",
  "pageAccess" : "UseParent",
  "routeType" : "custom-vm-updateprofile-page",
  "type" : "route",
  "urlPrefix" : "vm-updateprofile"
}